Simulation Challenge
…
  return(path_data)
}

# Run single simulation
single_simulation <- simulate_single_path(initial_balance, n_years)

# Display the data
cat("=== SINGLE SIMULATION RESULTS ===\n")

=== SINGLE SIMULATION RESULTS ===

print(single_simulation)

# A tibble: 31 × 3
    year   age balance
   <int> <int>   <dbl>
 1     0    25   1000 
 2     1    26    600 
 3     2    27    900 
 4     3    28    540 
 5     4    29    810 
 6     5    30   1215 
 7     6    31    729 
 8     7    32   1094.
 9     8    33   1640.
10     9    34   2460.
# ℹ 21 more rows
…
